DATA_HOST	        127.0.0.1
DATA_PORT	        2345
DATA_KEY            a000
WEIGHTS_KEY         a002
UDP_FORMAT	        LowTestVector
BYTES_PER_SECOND	16666666.666666666
OS_FACTOR           4/3
NCHAN               432
NBIT                16
NPOL                2
NDIM                2
TSAMP               207.36
BW                  1.5625
FREQ                100
START_CHANNEL       0
END_CHANNEL	        432
BEAM_ID             1
